^C:\USERS\PLATI\SOURCE\REPOS\MAGICMETHOD\MAGICMETHOD\DEBUG\CACHEEMITTER.OBJ|C:\USERS\PLATI\SOURCE\REPOS\MAGICMETHOD\MAGICMETHOD\DEBUG\JAVASIM.OBJ|C:\USERS\PLATI\SOURCE\REPOS\MAGICMETHOD\MAGICMETHOD\DEBUG\MAGICMETHOD.OBJ|C:\USERS\PLATI\SOURCE\REPOS\MAGICMETHOD\MAGICMETHOD\DEBUG\PYTHONSIM.OBJ
C:\USERS\PLATI\SOURCE\REPOS\MAGICMETHOD\DEBUG\MAGICMETHOD.EXE
C:\USERS\PLATI\SOURCE\REPOS\MAGICMETHOD\DEBUG\MAGICMETHOD.ILK
C:\USERS\PLATI\SOURCE\REPOS\MAGICMETHOD\DEBUG\MAGICMETHOD.PDB
